<svg xmlns="http://www.w3.org/2000/svg" width="218.516" height="81.047" viewBox="0 0 218.516 81.047">
  <g id="组_612" data-name="组 612" transform="translate(-315.962 -38.715)">
    <line id="直线_127" data-name="直线 127" x2="20.711" y2="32.545" transform="translate(349.492 45.617)" fill="none" stroke="#fff" stroke-linecap="round" stroke-width="10"/>
    <line id="直线_128" data-name="直线 128" y1="32.545" x2="20.711" transform="translate(349.492 79.596)" fill="none" stroke="#fff" stroke-linecap="round" stroke-width="10"/>
    <line id="直线_129" data-name="直线 129" x2="20.711" y2="32.545" transform="translate(322.864 46.334)" fill="none" stroke="#fff" stroke-linecap="round" stroke-width="10"/>
    <line id="直线_130" data-name="直线 130" y1="32.545" x2="20.711" transform="translate(322.864 80.313)" fill="none" stroke="#fff" stroke-linecap="round" stroke-width="10"/>
    <line id="直线_43" data-name="直线 43" x2="165.785" y2="1.005" transform="translate(368.662 78.883)" fill="none" stroke="#fff" stroke-width="10"/>
    <line id="直线_119" data-name="直线 119" x2="20.711" y2="32.545" transform="translate(349.492 45.617)" fill="none" stroke="#fff" stroke-linecap="round" stroke-width="4"/>
    <line id="直线_120" data-name="直线 120" y1="32.545" x2="20.711" transform="translate(349.492 79.596)" fill="none" stroke="#fff" stroke-linecap="round" stroke-width="4"/>
    <line id="直线_121" data-name="直线 121" x2="20.711" y2="32.545" transform="translate(322.864 46.334)" fill="none" stroke="#fff" stroke-linecap="round" stroke-width="4"/>
    <line id="直线_122" data-name="直线 122" y1="32.545" x2="20.711" transform="translate(322.864 80.313)" fill="none" stroke="#fff" stroke-linecap="round" stroke-width="4"/>
  </g>
</svg>
